…
### Data loading

First read in your gene expression file. You can do that with
`read_csv()`. Minimally it should contain the gene ID, the log fold
change and the $p$-value.

``` r
library(readr)
library(dplyr)
library(here)

gene_expression <- read_csv(system.file("extdata", "sample_gene_expression.csv", package = "osgo", mustWork = TRUE))
gene_expression
#> # A tibble: 132 × 3
#>    gene_id         log2fc  p.adj
#>    <chr>            <dbl>  <dbl>
#>  1 transcript-psbF  3.53  0.291 
#>  2 Os01t0814150-00  1.51  0.217 
#>  3 Os06t0240025-00 -7.03  0.255 
#>  4 Os02t0612100-01 -7.19  0.377 
#>  5 Os12t0409800-01  2.11  0.174 
#>  6 Os02t0780000-00 -3.04  0.183 
#>  7 Os08t0548900-01 -0.341 0.199 
#>  8 Os11t0215100-01  3.60  0.0434
#>  9 Os10t0439700-00 -3.36  0.309 
#> 10 Os03t0812300-01 -4.93  0.157 
#> # … with 122 more rows
```
…
